<?xml version="1.0" encoding="UTF-8" standalone="no"?>
<!-- https://osf.io/tvyxz/files/osfstorage -->
<svg width="24.711695mm" height="27.05876mm" viewBox="0 0 24.711695 27.05876" version="1.1" xmlns="http://www.w3.org/2000/svg">
  <g transform="matrix(0.26458333,0,0,0.26458333,-232.3987,-74.358856)">
    <path d="m 963.53198,300.46535 -30.25067,-17.46267 c -2.26267,-1.308 -5.244,-1.96133 -8.22667,-1.96133 -2.98133,0 -5.96133,0.65333 -8.224,1.96133 l -30.24933,17.46267 c -4.524,2.61333 -8.224,9.02133 -8.224,14.244 v 34.93066 c 0,5.224 3.7,11.63467 8.224,14.24667 l 30.24933,17.46667 c 2.26267,1.304 5.244,1.956 8.224,1.956 2.98267,0 5.964,-0.652 8.224,-1.956 l 30.25334,-17.46667 c 4.52266,-2.612 8.224,-9.02267 8.224,-14.24667 v -34.93066 c 0,-5.22267 -3.70134,-11.63067 -8.224,-14.244" style="fill:#f79011;stroke-width:1.33333" />
    <path d="m 904.41864,324.21468 v 20.63867 l 20.63734,8.408 20.64133,-8.408 v -20.63867 l -20.64133,8.40667 z m 8.66534,-13.124 -20.64267,8.412 11.97733,4.712 20.63734,-8.40933 z m 23.95066,0 -11.97866,4.71467 20.64133,8.40933 11.97333,-4.712 -20.636,-8.412" style="fill:#ffffff;stroke-width:1.33333" />
  </g>
</svg>
