<?xml version="1.0" encoding="UTF-8" standalone="no"?>
<!-- https://osf.io/tvyxz/files/osfstorage -->
<svg width="24.711695mm" height="27.05876mm" viewBox="0 0 24.711695 27.05876" version="1.1" xmlns="http://www.w3.org/2000/svg">
  <g transform="matrix(0.26458333,0,0,0.26458333,-350.98566,-74.358856)">
    <path d="M 1411.7333,300.46535 1381.48,283.00268 c -2.2534,-1.308 -5.24,-1.96133 -8.2267,-1.96133 -2.9733,0 -5.96,0.65333 -8.2133,1.96133 l -30.2534,17.46267 c -4.5266,2.61333 -8.2266,9.02133 -8.2266,14.244 v 34.93066 c 0,5.224 3.7,11.63467 8.2266,14.24667 l 30.2534,17.46667 c 2.2533,1.304 5.24,1.956 8.2133,1.956 2.9867,0 5.9733,-0.652 8.2267,-1.956 l 30.2533,-17.46667 c 4.52,-2.612 8.2267,-9.02267 8.2267,-14.24667 v -34.93066 c 0,-5.22267 -3.7067,-11.63067 -8.2267,-14.244" style="fill:#ef3638;stroke-width:1.33333" />
    <path d="m 1348.5066,338.34268 c -1.32,-1.32267 -1.04,-3.76933 0,-4.81333 v 0 l 3.68,-3.676 c 1.32,-1.32534 3.4934,-1.32534 4.8134,0 l 5.72,5.71733 c 1.32,1.32267 3.48,1.32267 4.8133,0 l 23.76,-23.76933 c 1.3333,-1.324 3.4933,-1.324 4.8133,0 l 3.68,3.676 c 1.32,1.32533 1.32,3.49066 0,4.81466 l -32.2533,32.25867 c -1.3333,1.32267 -3.4933,1.32267 -4.8133,0 l -14.2134,-14.208" style="fill:#ffffff;stroke-width:1.33333" />
  </g>
</svg>
